module gitlab.com/sbsistemas/apis/html-para-pdf

go 1.16

require (
	github.com/SebastiaanKlippert/go-wkhtmltopdf v1.7.2 // indirect
	github.com/gin-gonic/gin v1.7.7 // indirect
	github.com/go-playground/validator/v10 v10.9.0 // indirect
	github.com/golang/protobuf v1.5.2 // indirect
	github.com/json-iterator/go v1.1.12 // indirect
	github.com/mattn/go-isatty v0.0.14 // indirect
	github.com/modern-go/concurrent v0.0.0-20180306012644-bacd9c7ef1dd // indirect
	github.com/subosito/gotenv v1.2.0 // indirect
	github.com/ugorji/go v1.2.6 // indirect
	golang.org/x/crypto v0.0.0-20211209193657-4570a0811e8b // indirect
	golang.org/x/sys v0.0.0-20211214150614-024a26f5d6e2 // indirect
	golang.org/x/text v0.3.7 // indirect
	google.golang.org/protobuf v1.27.1 // indirect
	gopkg.in/yaml.v2 v2.4.0 // indirect
)
